{
    "name": "reskins-angels",
    "version": "2.1.1",
    "factorio_version": "1.1",
    "title": "Artisanal Reskins: Angel's Mods",
    "author": "Kirazy",
    "contact": "kirazy@live.com",
    "homepage": "https://forums.factorio.com/viewtopic.php?f=185&t=89666",
    "dependencies": [
        "base",
        "reskins-library >= 2.1.0",
        "? reskins-bobs",
        "? angelsbioprocessing",
        "? angelsexploration",
        "? angelsindustries",
        "? angelspetrochem",
        "? angelsrefining",
        "? angelssmelting",
        "(?) angelsaddons-cab",
        "(?) angelsaddons-mobility",
        "(?) angelsaddons-storage"
    ]
}