{
  "name": "RITEG",
  "version": "1.3.3",
  "date": "2021-02-22",
  
  "title": "RITEG",
  "description": "Radioisotope thermoelectric generator, makes electricity from nuclear heat",

  "author": "darkfrei",
  "license": "MIT",
  
  "dependencies": ["base", "? PlutoniumEnergy", "? Nuclear Fuel"],
  "factorio_version": "1.1"
}
