{
	"name": "Shortcuts-ick",
	"version": "1.1.21",
	"factorio_version": "1.1",
	"title": "Shortcuts for 1.1",
	"author": "npc_strider(morley376), modified by ickputzdirwech",
	"contact": "ickputzdirwech@gmx.de",
	"homepage": "https://forums.factorio.com/viewtopic.php?f=190&t=88439",
	"dependencies": ["base >= 1.1.48",
		"(?) aai-programmable-vehicles >= 0.7.9",
		"(?) Krastorio2 >= 1.0.16",
		"(?) northifytool >= 1.1.2",
		"(?) PersonalLogisticsShortcut >= 0.3.0",
		"(?) VehicleWagon2 >= 3.1.15",
		"(?) WellPlanner >= 0.18.7"],
	"description": "Adds a host of useful shortcuts to improve QOL. Shortcuts for:\n\n- Toggles for equipment and personal logistic requests\n- artillery remote and an artillery cannon fire toggle\n- deconstruction planner trees/rocks only and cliff/fish/item-on-ground\n- Spidertron settings, spidertron remote and train manual mode\n- rail block visualisation, player lamp, customizable grid overlay and far zoom\n- Shortcuts for various other mods\n\nOriginal mod by npc_strider(morley376) mods.factorio.com/mod/Shortcuts."
}
